…
Now, let's make a dataframe! Perhaps something that looks like this?
|Accession|GC Content|Collection Date|
|---|---|---|
|id 1|gc_content 1|date 1|
|id 2|gc_content 2|date 2|
|id 3|gc_content 3|date 3|

```julia
julia> using DataFrames

julia> gcContentDf = DataFrame(id = accessionVec, gc_content = gcContentVec, collection_date = betterCollectDateVec)
5701×3 DataFrame
  Row │ id           gc_content  collection_date 
      │ Any          Float64     Date            
──────┼──────────────────────────────────────────
    1 │ NC_045512.2    0.379728  2019-12-01
    2 │ MZ573077.1     0.379288  2021-07-05
    3 │ MZ573079.1     0.379352  2021-07-05
    4 │ MZ573080.1     0.379432  2021-07-05
    5 │ MZ572200.1     0.379553  2021-06-01
    6 │ MZ572201.1     0.379559  2021-06-01
    7 │ MZ572203.1     0.379743  2021-06-01
    8 │ MZ572204.1     0.379549  2021-06-04
    9 │ MZ572206.1     0.379699  2021-06-09
   10 │ MZ572207.1     0.379546  2021-06-14
   11 │ MZ571142.1     0.379905  2021-04-22
   12 │ MZ562707.1     0.379672  2021-04-30
   13 │ MZ562746.1     0.379763  2021-03-07
   14 │ MZ562747.1     0.379814  2021-03-07
   15 │ MZ562748.1     0.379936  2021-03-08
   16 │ MZ562749.1     0.379893  2021-03-08
   17 │ MZ562750.1     0.379662  2021-03-08
   18 │ MZ562751.1     0.379702  2021-03-07
  ⋮   │      ⋮           ⋮              ⋮
 5685 │ KF600645.1     0.411819  2013-05-11
 5686 │ KF600647.1     0.411987  2013-05-15
 5687 │ KF600651.1     0.412058  2013-05-23
 5688 │ KF600652.1     0.412007  2012-10-30
 5689 │ KC869678.4     0.401521  2011-01-01
 5690 │ JX993987.1     0.41592   2011-09-01
 5691 │ JX993988.1     0.408733  2011-01-01
 5692 │ KF186564.1     0.411954  2013-05-01
 5693 │ KF186565.1     0.411819  2013-04-22
 5694 │ KF186566.1     0.411896  2013-04-21
 5695 │ KF186567.1     0.411927  2013-05-09
 5696 │ KF192507.1     0.411911  2013-01-01
 5697 │ KC776174.1     0.412401  2012-04-01
 5698 │ GU553363.1     0.407975  2003-06-07
 5699 │ GU553364.1     0.407975  2003-06-07
 5700 │ FJ588686.1     0.410923  2006-01-01
 5701 │ DQ182595.1     0.408032  2003-04-21
                                5666 rows omitted
```
…
