…
Now we have our vectors! You might have noticed that I excluded the 7mers; that's because my laptop was struggling! So I gave up on that dream. Moving on, let's set up our dataframe and see what it looks like. So exciting!!

```julia
julia> using DataFrames

julia> kmerDf = DataFrame(kmer = kmer, k = k, count = count, id = id, location = location)

julia> kmerDf
29619676×5 DataFrame
      Row │ kmer    k    count  id           location                          
          │ Any     Any  Any    Any          Any                               
──────────┼────────────────────────────────────────────────────────────────────
        1 │ TGT     3    858    NC_045512.2  China
        2 │ GAC     3    340    NC_045512.2  China
        3 │ GAA     3    535    NC_045512.2  China
        4 │ TTC     3    518    NC_045512.2  China
        5 │ ACA     3    809    NC_045512.2  China
        6 │ TAG     3    427    NC_045512.2  China
        7 │ GTA     3    469    NC_045512.2  China
        8 │ GTG     3    552    NC_045512.2  China
        9 │ CCT     3    344    NC_045512.2  China
       10 │ GCT     3    521    NC_045512.2  China
       11 │ GGC     3    223    NC_045512.2  China
       12 │ AGG     3    329    NC_045512.2  China
       13 │ CGG     3    76     NC_045512.2  China
       14 │ AGC     3    301    NC_045512.2  China
       15 │ ATT     3    773    NC_045512.2  China
       16 │ GAT     3    440    NC_045512.2  China
       17 │ CAG     3    438    NC_045512.2  China
       18 │ ATG     3    725    NC_045512.2  China
    ⋮     │   ⋮      ⋮     ⋮         ⋮                       ⋮
 29619659 │ TCAAGT  6    8      AY278554.2   China: Hong Kong, Prince of Wale…
 29619660 │ GAACAG  6    7      AY278554.2   China: Hong Kong, Prince of Wale…
 29619661 │ TACTGT  6    14     AY278554.2   China: Hong Kong, Prince of Wale…
 29619662 │ ATATTA  6    7      AY278554.2   China: Hong Kong, Prince of Wale…
 29619663 │ GCTACA  6    18     AY278554.2   China: Hong Kong, Prince of Wale…
 29619664 │ GCCAAT  6    6      AY278554.2   China: Hong Kong, Prince of Wale…
 29619665 │ GGATCA  6    3      AY278554.2   China: Hong Kong, Prince of Wale…
 29619666 │ CCCAGC  6    3      AY278554.2   China: Hong Kong, Prince of Wale…
 29619667 │ TTTAGT  6    13     AY278554.2   China: Hong Kong, Prince of Wale…
 29619668 │ CTGCGA  6    1      AY278554.2   China: Hong Kong, Prince of Wale…
 29619669 │ TCGTGC  6    6      AY278554.2   China: Hong Kong, Prince of Wale…
 29619670 │ TTAACG  6    3      AY278554.2   China: Hong Kong, Prince of Wale…
 29619671 │ ATTGTA  6    12     AY278554.2   China: Hong Kong, Prince of Wale…
 29619672 │ AAGTCG  6    2      AY278554.2   China: Hong Kong, Prince of Wale…
 29619673 │ TAAATC  6    5      AY278554.2   China: Hong Kong, Prince of Wale…
 29619674 │ GCTTGT  6    18     AY278554.2   China: Hong Kong, Prince of Wale…
 29619675 │ TTGTCC  6    5      AY278554.2   China: Hong Kong, Prince of Wale…
 29619676 │ CAGGTT  6    14     AY278554.2   China: Hong Kong, Prince of Wale…
                                                          29619640 rows omitted
```
…
Now, let's add just one more column to the dataframe to organize the data by region and subregion. Also, it'd be nice if the types were more specific.

```julia
julia> kmerDf.region = map(x -> country_to_region[x], kmerDf.country)
julia> kmerDf.subregion = map(x -> country_to_subregion[x], kmerDf.country)

julia> kmerDf[!, :kmer] = convert.(String, kmerDf[:, :kmer])
julia> kmerDf[!, :k] = convert.(Int, kmerDf[:, :k])
julia> kmerDf[!, :count] = convert.(Int, kmerDf[:, :count])
julia> kmerDf
29619676×8 DataFrame
      Row │ kmer    k    count  id           location           country    region  subregion    
          │ String     Int64  Int64    Any          Any                SubStrin…  String  String       
──────────┼───────────────────────────────────────────────────────────────────────────────────────
        1 │ TGT     3    858    NC_045512.2  China              China      Asia    Eastern Asia
        2 │ GAC     3    340    NC_045512.2  China              China      Asia    Eastern Asia
        3 │ GAA     3    535    NC_045512.2  China              China      Asia    Eastern Asia
        4 │ TTC     3    518    NC_045512.2  China              China      Asia    Eastern Asia
        5 │ ACA     3    809    NC_045512.2  China              China      Asia    Eastern Asia
        6 │ TAG     3    427    NC_045512.2  China              China      Asia    Eastern Asia
        7 │ GTA     3    469    NC_045512.2  China              China      Asia    Eastern Asia
        8 │ GTG     3    552    NC_045512.2  China              China      Asia    Eastern Asia
        9 │ CCT     3    344    NC_045512.2  China              China      Asia    Eastern Asia
       10 │ GCT     3    521    NC_045512.2  China              China      Asia    Eastern Asia
       11 │ GGC     3    223    NC_045512.2  China              China      Asia    Eastern Asia
       12 │ AGG     3    329    NC_045512.2  China              China      Asia    Eastern Asia
       13 │ CGG     3    76     NC_045512.2  China              China      Asia    Eastern Asia
       14 │ AGC     3    301    NC_045512.2  China              China      Asia    Eastern Asia
       15 │ ATT     3    773    NC_045512.2  China              China      Asia    Eastern Asia
       16 │ GAT     3    440    NC_045512.2  China              China      Asia    Eastern Asia
       17 │ CAG     3    438    NC_045512.2  China              China      Asia    Eastern Asia
       18 │ ATG     3    725    NC_045512.2  China              China      Asia    Eastern Asia
    ⋮     │   ⋮      ⋮     ⋮         ⋮               ⋮               ⋮         ⋮          ⋮
 29619659 │ TCAAGT  6    8      AY278554.2   China: Hong Kong…  China      Asia    Eastern Asia
 29619660 │ GAACAG  6    7      AY278554.2   China: Hong Kong…  China      Asia    Eastern Asia
 29619661 │ TACTGT  6    14     AY278554.2   China: Hong Kong…  China      Asia    Eastern Asia
 29619662 │ ATATTA  6    7      AY278554.2   China: Hong Kong…  China      Asia    Eastern Asia
 29619663 │ GCTACA  6    18     AY278554.2   China: Hong Kong…  China      Asia    Eastern Asia
 29619664 │ GCCAAT  6    6      AY278554.2   China: Hong Kong…  China      Asia    Eastern Asia
 29619665 │ GGATCA  6    3      AY278554.2   China: Hong Kong…  China      Asia    Eastern Asia
 29619666 │ CCCAGC  6    3      AY278554.2   China: Hong Kong…  China      Asia    Eastern Asia
 29619667 │ TTTAGT  6    13     AY278554.2   China: Hong Kong…  China      Asia    Eastern Asia
 29619668 │ CTGCGA  6    1      AY278554.2   China: Hong Kong…  China      Asia    Eastern Asia
 29619669 │ TCGTGC  6    6      AY278554.2   China: Hong Kong…  China      Asia    Eastern Asia
 29619670 │ TTAACG  6    3      AY278554.2   China: Hong Kong…  China      Asia    Eastern Asia
 29619671 │ ATTGTA  6    12     AY278554.2   China: Hong Kong…  China      Asia    Eastern Asia
 29619672 │ AAGTCG  6    2      AY278554.2   China: Hong Kong…  China      Asia    Eastern Asia
 29619673 │ TAAATC  6    5      AY278554.2   China: Hong Kong…  China      Asia    Eastern Asia
 29619674 │ GCTTGT  6    18     AY278554.2   China: Hong Kong…  China      Asia    Eastern Asia
 29619675 │ TTGTCC  6    5      AY278554.2   China: Hong Kong…  China      Asia    Eastern Asia
 29619676 │ CAGGTT  6    14     AY278554.2   China: Hong Kong…  China      Asia    Eastern Asia
                                                                            29619640 rows omitted
```
…
